{
    # the name => all  in kabab case (all words in lowercase separated by -)
    "name": "my-company/my-package-name",
    "description": "My first packagist package",
    "type": "package",
    "require": {
        "php": ">=5.3.0"
    },
    "license": "mit",
    "authors": [
        {
            "name": "Your Name",
            "email": "your@email.com",
            "homepage": "http://yourhomepage-if-you-have.com"
        }
    ],
    "minimum-stability": "dev",
    "autoload": {
        "psr-4": {
            #the company in camelCase
            #and the package in PascalCase
            "myCompany\\MyPackageName\\": "src/"
        }
    }
}